205 332 200 311 316 302 321 323
213 305 213 284 321 279 326 299
210 285 210 267 326 266 326 284
212 263 212 243 346 239 346 259
220 244 220 227 335 223 335 240
213 221 213 204 339 199 339 216
203 205 203 185 340 180 340 201
36 30 64 11 163  56 135 75